tests/waves.vcd
$date today $end
$timescale 1 ns $end
$scope module top $end
$var reg 1 ! clk $end
$var reg 1 " ff0 $end
$var reg 1 # ff1 $end
$var reg 1 $ ff2 $end
$var reg 1 % ff3 $end
$var reg 1 & ff4 $end
$upscope $end
$enddefinitions $end
#0
$dumpvars
0!
1"
0#
0$
0%
0&
$end
#1
1!
0"
1#
#2
0!
#3
1!
0#
1$
#4
0!
#5
1!
0$
1%
#6
0!
#7
1!
0%
1&
#8
0!
#9
1!
1"
0&
#10
0!
#11
1!
0"
1#
#12
0!
#13
1!
0#
1$
#14
0!
#15
1!
0$
1%
#16
0!
#17
1!
0%
1&
#18
0!
#19
1!
1"
0&
#20
0!
#21
1!
0"
1#
#22
0!
#23
1!
0#
1$
#24
0!
#25
1!
0$
1%
#26
0!
#27
1!
0%
1&
#28
0!
#29
1!
1"
0&
#30
0!
#31
1!
0"
1#
#32
0!
#33
1!
0#
1$
#34
0!
#35
1!
0$
1%
#36
0!
#37
1!
0%
1&
#38
0!
#39
1!
1"
0&
